[
  {
    "_id": "4a22c1e0-0164-11e9-8bd8-f7621f0df0c4",
    "_type": "dashboard",
    "_source": {
      "title": "Businesses Dashboard",
      "hits": 0,
      "description": "",
      "panelsJSON": "[{\"panelIndex\":\"1\",\"gridData\":{\"x\":0,\"y\":0,\"w\":6,\"h\":3,\"i\":\"1\"},\"id\":\"79cfea90-0163-11e9-8bd8-f7621f0df0c4\",\"type\":\"visualization\",\"version\":\"6.2.4\"},{\"panelIndex\":\"2\",\"gridData\":{\"x\":6,\"y\":3,\"w\":6,\"h\":4,\"i\":\"2\"},\"id\":\"b59a9e30-0163-11e9-8bd8-f7621f0df0c4\",\"type\":\"visualization\",\"version\":\"6.2.4\",\"embeddableConfig\":{\"vis\":{\"legendOpen\":false}}},{\"panelIndex\":\"3\",\"gridData\":{\"x\":0,\"y\":3,\"w\":6,\"h\":4,\"i\":\"3\"},\"embeddableConfig\":{\"spy\":null,\"vis\":{\"defaultColors\":{\"0 - 400\":\"rgb(247,252,245)\",\"1,200 - 1,600\":\"rgb(35,139,69)\",\"400 - 800\":\"rgb(199,233,192)\",\"800 - 1,200\":\"rgb(116,196,118)\"},\"legendOpen\":false}},\"id\":\"0f2779f0-0169-11e9-8bd8-f7621f0df0c4\",\"type\":\"visualization\",\"version\":\"6.2.4\"},{\"panelIndex\":\"4\",\"gridData\":{\"x\":6,\"y\":0,\"w\":3,\"h\":3,\"i\":\"4\"},\"version\":\"6.2.4\",\"type\":\"visualization\",\"id\":\"a800a0e0-016c-11e9-8bd8-f7621f0df0c4\"},{\"panelIndex\":\"5\",\"gridData\":{\"x\":9,\"y\":0,\"w\":3,\"h\":3,\"i\":\"5\"},\"version\":\"6.2.4\",\"type\":\"visualization\",\"id\":\"ddec2fd0-016c-11e9-8bd8-f7621f0df0c4\"}]",
      "optionsJSON": "{\"darkTheme\":false,\"hidePanelTitles\":false,\"useMargins\":true}",
      "version": 1,
      "timeRestore": true,
      "timeTo": "2018-12-16T18:45:34.098Z",
      "timeFrom": "2015-12-31T23:00:00.000Z",
      "refreshInterval": {
        "display": "Off",
        "pause": false,
        "value": 0
      },
      "kibanaSavedObjectMeta": {
        "searchSourceJSON": "{\"query\":{\"language\":\"lucene\",\"query\":\"\"},\"filter\":[],\"highlightAll\":true,\"version\":true}"
      }
    },
    "_meta": {
      "savedObjectVersion": 2
    }
  },
  {
    "_id": "b59a9e30-0163-11e9-8bd8-f7621f0df0c4",
    "_type": "visualization",
    "_source": {
      "title": "Licenses created monthly",
      "visState": "{\"title\":\"Licenses created monthly\",\"type\":\"histogram\",\"params\":{\"type\":\"histogram\",\"grid\":{\"categoryLines\":false,\"style\":{\"color\":\"#eee\"}},\"categoryAxes\":[{\"id\":\"CategoryAxis-1\",\"type\":\"category\",\"position\":\"bottom\",\"show\":true,\"style\":{},\"scale\":{\"type\":\"linear\"},\"labels\":{\"show\":true,\"truncate\":100},\"title\":{}}],\"valueAxes\":[{\"id\":\"ValueAxis-1\",\"name\":\"LeftAxis-1\",\"type\":\"value\",\"position\":\"left\",\"show\":true,\"style\":{},\"scale\":{\"type\":\"linear\",\"mode\":\"normal\"},\"labels\":{\"show\":true,\"rotate\":0,\"filter\":false,\"truncate\":100},\"title\":{\"text\":\"Count\"}}],\"seriesParams\":[{\"show\":\"true\",\"type\":\"histogram\",\"mode\":\"stacked\",\"data\":{\"label\":\"Count\",\"id\":\"1\"},\"valueAxis\":\"ValueAxis-1\",\"drawLinesBetweenPoints\":true,\"showCircles\":true}],\"addTooltip\":true,\"addLegend\":true,\"legendPosition\":\"right\",\"times\":[],\"addTimeMarker\":false},\"aggs\":[{\"id\":\"1\",\"enabled\":true,\"type\":\"count\",\"schema\":\"metric\",\"params\":{}},{\"id\":\"2\",\"enabled\":true,\"type\":\"date_histogram\",\"schema\":\"segment\",\"params\":{\"field\":\"License Creation Date\",\"interval\":\"M\",\"customInterval\":\"2h\",\"min_doc_count\":1,\"extended_bounds\":{},\"customLabel\":\"Date\"}}]}",
      "uiStateJSON": "{}",
      "description": "",
      "version": 1,
      "kibanaSavedObjectMeta": {
        "searchSourceJSON": "{\"index\":\"240b8bb0-0162-11e9-8bd8-f7621f0df0c4\",\"filter\":[],\"query\":{\"query\":\"\",\"language\":\"lucene\"}}"
      }
    },
    "_meta": {
      "savedObjectVersion": 2
    }
  },
  {
    "_id": "79cfea90-0163-11e9-8bd8-f7621f0df0c4",
    "_type": "visualization",
    "_source": {
      "title": "Top 15 industries",
      "visState": "{\"title\":\"Top 15 industries\",\"type\":\"pie\",\"params\":{\"type\":\"pie\",\"addTooltip\":true,\"addLegend\":true,\"legendPosition\":\"right\",\"isDonut\":true,\"labels\":{\"show\":false,\"values\":true,\"last_level\":true,\"truncate\":100}},\"aggs\":[{\"id\":\"1\",\"enabled\":true,\"type\":\"count\",\"schema\":\"metric\",\"params\":{}},{\"id\":\"2\",\"enabled\":true,\"type\":\"terms\",\"schema\":\"segment\",\"params\":{\"field\":\"Industry.keyword\",\"otherBucket\":true,\"otherBucketLabel\":\"Other\",\"missingBucket\":true,\"missingBucketLabel\":\"Missing\",\"size\":15,\"order\":\"desc\",\"orderBy\":\"1\"}}]}",
      "uiStateJSON": "{}",
      "description": "",
      "version": 1,
      "kibanaSavedObjectMeta": {
        "searchSourceJSON": "{\"index\":\"240b8bb0-0162-11e9-8bd8-f7621f0df0c4\",\"filter\":[],\"query\":{\"query\":\"\",\"language\":\"lucene\"}}"
      }
    },
    "_meta": {
      "savedObjectVersion": 2
    }
  },
  {
    "_id": "0f2779f0-0169-11e9-8bd8-f7621f0df0c4",
    "_type": "visualization",
    "_source": {
      "title": "Industry-Borough Heatmap",
      "visState": "{\"title\":\"Industry-Borough Heatmap\",\"type\":\"heatmap\",\"params\":{\"type\":\"heatmap\",\"addTooltip\":true,\"addLegend\":true,\"enableHover\":false,\"legendPosition\":\"right\",\"times\":[],\"colorsNumber\":6,\"colorSchema\":\"Greens\",\"setColorRange\":false,\"colorsRange\":[],\"invertColors\":false,\"percentageMode\":false,\"valueAxes\":[{\"show\":false,\"id\":\"ValueAxis-1\",\"type\":\"value\",\"scale\":{\"type\":\"linear\",\"defaultYExtents\":false},\"labels\":{\"show\":false,\"rotate\":0,\"color\":\"#555\"}}]},\"aggs\":[{\"id\":\"1\",\"enabled\":true,\"type\":\"count\",\"schema\":\"metric\",\"params\":{}},{\"id\":\"2\",\"enabled\":true,\"type\":\"terms\",\"schema\":\"segment\",\"params\":{\"field\":\"Industry.keyword\",\"otherBucket\":false,\"otherBucketLabel\":\"Other\",\"missingBucket\":false,\"missingBucketLabel\":\"Missing\",\"size\":5,\"order\":\"desc\",\"orderBy\":\"1\",\"customLabel\":\"Industry\"}},{\"id\":\"3\",\"enabled\":true,\"type\":\"terms\",\"schema\":\"group\",\"params\":{\"field\":\"Address Borough.keyword\",\"otherBucket\":false,\"otherBucketLabel\":\"Other\",\"missingBucket\":false,\"missingBucketLabel\":\"Missing\",\"size\":6,\"order\":\"desc\",\"orderBy\":\"1\",\"customLabel\":\"Borough\"}}]}",
      "uiStateJSON": "{\"vis\":{\"defaultColors\":{\"0 - 267\":\"rgb(247,252,245)\",\"267 - 534\":\"rgb(219,241,214)\",\"534 - 800\":\"rgb(174,222,167)\",\"800 - 1,067\":\"rgb(116,196,118)\",\"1,067 - 1,334\":\"rgb(55,160,85)\",\"1,334 - 1,600\":\"rgb(12,119,52)\"},\"legendOpen\":true}}",
      "description": "",
      "version": 1,
      "kibanaSavedObjectMeta": {
        "searchSourceJSON": "{\"index\":\"240b8bb0-0162-11e9-8bd8-f7621f0df0c4\",\"filter\":[],\"query\":{\"query\":\"\",\"language\":\"lucene\"}}"
      }
    },
    "_meta": {
      "savedObjectVersion": 2
    }
  },
  {
    "_id": "a800a0e0-016c-11e9-8bd8-f7621f0df0c4",
    "_type": "visualization",
    "_source": {
      "title": "Active licenses",
      "visState": "{\"title\":\"Active licenses\",\"type\":\"metric\",\"params\":{\"addTooltip\":true,\"addLegend\":false,\"type\":\"metric\",\"metric\":{\"percentageMode\":false,\"useRanges\":false,\"colorSchema\":\"Green to Red\",\"metricColorMode\":\"None\",\"colorsRange\":[{\"from\":0,\"to\":10000}],\"labels\":{\"show\":true},\"invertColors\":false,\"style\":{\"bgFill\":\"#000\",\"bgColor\":false,\"labelColor\":false,\"subText\":\"\",\"fontSize\":60}}},\"aggs\":[{\"id\":\"1\",\"enabled\":true,\"type\":\"count\",\"schema\":\"metric\",\"params\":{\"customLabel\":\"Count\"}},{\"id\":\"2\",\"enabled\":true,\"type\":\"significant_terms\",\"schema\":\"group\",\"params\":{\"field\":\"License Status.keyword\",\"size\":1,\"customLabel\":\"Active\"}}]}",
      "uiStateJSON": "{}",
      "description": "",
      "version": 1,
      "kibanaSavedObjectMeta": {
        "searchSourceJSON": "{\"index\":\"240b8bb0-0162-11e9-8bd8-f7621f0df0c4\",\"filter\":[],\"query\":{\"query\":\"\",\"language\":\"lucene\"}}"
      }
    },
    "_meta": {
      "savedObjectVersion": 2
    }
  },
  {
    "_id": "ddec2fd0-016c-11e9-8bd8-f7621f0df0c4",
    "_type": "visualization",
    "_source": {
      "title": "Inactive licenses",
      "visState": "{\"title\":\"Inactive licenses\",\"type\":\"metric\",\"params\":{\"addTooltip\":true,\"addLegend\":false,\"type\":\"metric\",\"metric\":{\"percentageMode\":false,\"useRanges\":false,\"colorSchema\":\"Green to Red\",\"metricColorMode\":\"None\",\"colorsRange\":[{\"from\":0,\"to\":10000}],\"labels\":{\"show\":true},\"invertColors\":false,\"style\":{\"bgFill\":\"#000\",\"bgColor\":false,\"labelColor\":false,\"subText\":\"\",\"fontSize\":60}}},\"aggs\":[{\"id\":\"1\",\"enabled\":true,\"type\":\"count\",\"schema\":\"metric\",\"params\":{}},{\"id\":\"2\",\"enabled\":true,\"type\":\"terms\",\"schema\":\"group\",\"params\":{\"field\":\"License Status.keyword\",\"otherBucket\":false,\"otherBucketLabel\":\"Other\",\"missingBucket\":false,\"missingBucketLabel\":\"Missing\",\"size\":1,\"order\":\"asc\",\"orderBy\":\"1\"}}]}",
      "uiStateJSON": "{}",
      "description": "",
      "version": 1,
      "kibanaSavedObjectMeta": {
        "searchSourceJSON": "{\"index\":\"240b8bb0-0162-11e9-8bd8-f7621f0df0c4\",\"filter\":[],\"query\":{\"query\":\"\",\"language\":\"lucene\"}}"
      }
    },
    "_meta": {
      "savedObjectVersion": 2
    }
  }
]